unidade_aritmetica/simulation/qsim/unidade_aritmetica.msim.vcd
$comment
	File created using the following command:
		vcd file unidade_aritmetica.msim.vcd -direction
$end
$date
	Wed Sep 11 08:25:47 2019
$end
$version
	ModelSim Version 10.1d
$end
$timescale
	1ps
$end
$scope module unidade_aritmetica_vlg_vec_tst $end
$var reg 4 ! A [3:0] $end
$var reg 4 " B [3:0] $end
$var reg 2 # OPCODE [1:0] $end
$var wire 1 $ F [3] $end
$var wire 1 % F [2] $end
$var wire 1 & F [1] $end
$var wire 1 ' F [0] $end
$var wire 1 ( sampler $end
$scope module i1 $end
$var wire 1 ) gnd $end
$var wire 1 * vcc $end
$var wire 1 + unknown $end
$var tri1 1 , devclrn $end
$var tri1 1 - devpor $end
$var tri1 1 . devoe $end
$var wire 1 / Add2~0_combout $end
$var wire 1 0 Add2~4_combout $end
$var wire 1 1 B[0]~input_o $end
$var wire 1 2 B[1]~input_o $end
$var wire 1 3 B[2]~input_o $end
$var wire 1 4 B[3]~input_o $end
$var wire 1 5 F[0]~output_o $end
$var wire 1 6 F[1]~output_o $end
$var wire 1 7 F[2]~output_o $end
$var wire 1 8 F[3]~output_o $end
$var wire 1 9 OPCODE[1]~input_o $end
$var wire 1 : A[0]~input_o $end
$var wire 1 ; OPCODE[0]~input_o $end
$var wire 1 < Mux3~0_combout $end
$var wire 1 = Add3~0_combout $end
$var wire 1 > Mux3~1_combout $end
$var wire 1 ? A[1]~input_o $end
$var wire 1 @ Add2~1 $end
$var wire 1 A Add2~2_combout $end
$var wire 1 B Mux2~0_combout $end
$var wire 1 C Add3~1 $end
$var wire 1 D Add3~2_combout $end
$var wire 1 E Mux2~1_combout $end
$var wire 1 F A[2]~input_o $end
$var wire 1 G Mux1~0_combout $end
$var wire 1 H Add3~3 $end
$var wire 1 I Add3~4_combout $end
$var wire 1 J Mux1~1_combout $end
$var wire 1 K Mux1~2_combout $end
$var wire 1 L A[3]~input_o $end
$var wire 1 M Mux0~0_combout $end
$var wire 1 N Add2~3 $end
$var wire 1 O Add2~5 $end
$var wire 1 P Add2~6_combout $end
$var wire 1 Q Add3~5 $end
$var wire 1 R Add3~6_combout $end
$var wire 1 S Mux0~1_combout $end
$var wire 1 T Mux0~2_combout $end
$upscope $end
$upscope $end
$enddefinitions $end
#0
$dumpvars
b111 !
b1001 "
b0 #
0'
0&
0%
1$
x(
0)
1*
x+
1,
1-
1.
0/
00
11
02
03
14
05
06
07
18
09
1:
0;
0<
0=
0>
1?
1@
0A
0B
1C
1D
0E
1F
1G
0H
1I
0J
0K
0L
1M
0N
1O
0P
1Q
1R
0S
1T
$end
#50000
b110 !
b1101 "
13
0:
0(
0I
10
0M
0G
1B
0C
1=
1<
0@
1/
0D
1N
1A
0T
1K
1E
1>
00
08
17
16
15
0$
1%
1&
1'
#100000
b1110 !
b1010 !
b1000 !
b101 "
b111 "
b1001 !
b11 "
12
03
04
1:
0?
0F
1L
1(
1H
0O
1C
0=
0<
1@
0/
0K
1T
0Q
1I
1P
1D
0N
0A
07
18
0%
1$
0>
0R
10
05
0'
#150000
b1 !
b101 !
b111 !
b1 "
b101 "
02
13
1?
1F
0L
0(
0H
1O
1M
1G
0B
1R
0P
1K
0T
1Q
0I
1P
17
08
1%
0$
1T
0K
0E
0R
18
07
06
1$
0%
0&
#200000
b1 #
b1101 "
b110 !
b1110 !
b1100 !
0:
0?
1L
14
1;
1(
0G
1B
0C
1=
1<
0@
1/
0D
1N
1A
1S
1J
0T
1H
1D
0A
00
08
0$
1E
1>
1T
0Q
1I
16
15
18
1&
1'
1$
1R
#250000
b1100 "
b1000 !
b1110 "
b1010 "
0F
01
12
03
0(
0M
0O
1C
0=
0/
0D
1A
1K
0P
1D
17
1%
0T
08
0$
#300000
b0 !
b1011 "
b1001 "
b1101 "
11
02
13
0L
1(
0C
1=
1/
0H
0D
0A
0I
10
0R
1P
1T
1H
1D
1I
18
1$
0I
#350000
b1 !
b11 !
b111 !
b1100 "
b1110 "
b1010 "
01
12
03
1:
1?
1F
0(
1C
0N
1Q
1M
1G
0<
0K
0H
0D
1O
00
1R
07
0%
0T
1K
0>
1I
0P
08
17
05
0$
1%
0'
#400000
b11 #
b10 #
b10 "
b110 !
b10 !
0:
0F
04
0;
19
1(
0M
0G
0B
0=
1<
0/
0I
0O
10
0R
1P
0S
0J
1T
0E
0<
1J
0P
1S
18
06
1$
0&
0T
0K
1>
0S
08
07
15
0$
0%
1'
0>
1K
1T
05
17
18
0'
1%
1$
0T
08
0$
#450000
b1010 !
b1000 !
b110 "
b1110 "
b1001 !
13
14
1:
0?
1L
0(
0Q
1I
1O
00
1=
1/
1H
1D
1N
1A
1R
0J
1P
1<
0I
0O
10
1E
1S
1J
0P
16
1&
0K
1>
0S
07
15
0%
1'
1T
1K
18
17
1$
1%
0T
08
0$
#500000
b1111 "
b1101 !
b101 !
b111 !
b1011 "
1?
1F
0L
11
03
1(
1M
1G
0H
0D
0N
0A
1Q
0R
1P
0=
1@
0/
1I
1O
00
1R
1S
1A
0<
0E
0J
0P
06
0&
1T
1E
0>
0S
18
16
05
1$
1&
0'
0K
07
0%
0T
08
0$
#550000
b1001 "
b110 !
b10 !
b1010 !
b1000 !
0:
0?
0F
1L
02
0(
0M
0G
0C
1=
0@
1/
1N
0I
0O
10
0R
1P
1H
1D
0A
1<
00
1J
0P
1S
0Q
1I
0J
0S
0E
1>
1K
1T
1R
06
15
17
18
0&
1'
1%
1$
0K
0T
07
08
0%
0$
#600000
b11 #
b1100 !
b100 !
b110 !
1?
1F
0L
1;
1(
1M
1G
0H
0D
1B
1A
1Q
0I
10
0R
1P
1S
1J
0<
1I
1R
0J
0S
1T
1K
1J
1S
18
17
1$
1%
0K
0T
07
08
0%
0$
1K
1T
17
18
1%
1$
#650000
b1000 "
b1010 "
b10 !
b1010 !
b1000 !
0?
0F
1L
01
12
0(
0M
0G
1H
0I
00
0R
0P
1C
0=
0/
0Q
1I
0J
0S
1D
0>
1R
1J
05
0'
0K
0T
1E
1S
07
08
16
0%
0$
1&
1K
17
1%
1T
18
1$
#700000
b1110 "
b1100 "
b0 !
0L
02
13
1(
0R
1P
0H
0D
0A
0I
10
0S
1I
0J
0E
1J
06
0&
0T
0K
08
07
0$
0%
1K
17
1%
#750000
b100 "
b100 !
b110 !
b0 "
b1110 !
1?
1F
1L
03
04
0(
1M
1G
1D
1A
1Q
1R
1E
1S
16
1&
1T
18
1$
#800000
b1 #
b1111 !
b0 #
b1 "
b101 "
11
13
1:
0;
09
1(
1@
0I
1O
00
0B
0S
0J
0N
0A
0P
0E
0T
0K
10
06
08
07
0&
0$
0%
#850000
b1011 !
b100 "
01
0F
0(
1=
0@
1/
0M
0Q
1I
00
1K
1N
1A
0R
17
1%
1T
0O
10
18
1$
1P
#900000
b110 "
b1110 "
b1001 !
b1 !
0?
0L
12
14
1(
0G
1H
1B
0T
0I
08
0$
0K
1E
07
16
0%
1&
#950000
b1010 "
b101 !
b1011 "
b1001 "
b1 "
1F
11
02
03
04
0(
1Q
0=
1@
0/
0H
0D
0A
1R
0P
1K
0R
1A
1I
17
1%
